#
## Alias OBJ Material File
# Exported from SketchUp, (c) 2000-2012 Trimble Navigation Limited

newmtl FrontColor
Ka 0.000000 0.000000 0.000000
Kd 1.000000 1.000000 1.000000
Ks 0.330000 0.330000 0.330000

newmtl BackColor
Ka 0.000000 0.000000 0.000000
Kd 0.670588 0.690196 0.800000
Ks 0.330000 0.330000 0.330000

newmtl _Blue_Glass_
Ka 0.000000 0.000000 0.000000
Kd 0.392157 0.584314 0.929412
Ks 0.330000 0.330000 0.330000
d 0.500000

newmtl _White_
Ka 0.000000 0.000000 0.000000
Kd 1.000000 1.000000 1.000000
Ks 0.330000 0.330000 0.330000

newmtl _Brick_Red_
Ka 0.000000 0.000000 0.000000
Kd 0.776471 0.368627 0.368627
Ks 0.330000 0.330000 0.330000

newmtl _Red_
Ka 0.000000 0.000000 0.000000
Kd 0.909804 0.333333 0.325490
Ks 0.330000 0.330000 0.330000

newmtl _Buff_
Ka 0.000000 0.000000 0.000000
Kd 0.968627 0.917647 0.745098
Ks 0.330000 0.330000 0.330000

newmtl _Concrete_
Ka 0.000000 0.000000 0.000000
Kd 0.654902 0.654902 0.654902
Ks 0.330000 0.330000 0.330000
map_Kd ApartmentBuilding/_Concrete_.jpg

newmtl _WarmGray4_
Ka 0.000000 0.000000 0.000000
Kd 0.878431 0.823529 0.788235
Ks 0.330000 0.330000 0.330000

newmtl _White_1
Ka 0.000000 0.000000 0.000000
Kd 1.000000 1.000000 1.000000
Ks 0.330000 0.330000 0.330000

newmtl _CoolGray5_
Ka 0.000000 0.000000 0.000000
Kd 0.560784 0.568627 0.600000
Ks 0.330000 0.330000 0.330000

newmtl _Red_1
Ka 0.000000 0.000000 0.000000
Kd 1.000000 0.000000 0.000000
Ks 0.330000 0.330000 0.330000

newmtl _Metal_floor_
Ka 0.000000 0.000000 0.000000
Kd 0.415686 0.431373 0.482353
Ks 0.330000 0.330000 0.330000
map_Kd ApartmentBuilding/_Metal_floor_.jpg

