# Blender v2.79 (sub 0) OBJ File: ''
# www.blender.org
mtllib tree.mtl
o Cube
v 2.479671 -1.189691 -0.522691
v 2.465838 1.146748 -0.560685
v 2.525719 -1.189691 -0.541672
v 2.525719 1.510309 -0.630376
v 2.537531 -1.189691 -0.532221
v 2.547947 1.300812 -0.532221
v 2.515996 -1.189691 -0.440924
v 2.515996 1.510309 -0.422860
v 2.467494 -1.189691 -0.460103
v 2.467494 1.271421 -0.429515
v 2.542739 0.055561 -0.532221
v 2.526763 -1.189691 -0.486572
v 2.559906 1.405561 -0.477541
v 2.515996 0.160309 -0.431892
v 2.528641 0.107935 -0.497368
v 2.472754 -0.021472 -0.522498
v 2.467494 0.040865 -0.444809
v 2.473583 -1.189691 -0.491397
v 2.466666 1.209084 -0.495100
v 2.488626 0.009697 -0.493248
v 2.461463 1.155699 -0.548851
v 3.258955 1.482165 -0.023131
v 2.213988 1.482165 0.301789
v 1.690896 1.482165 -0.548851
v 2.213988 1.512643 -1.098090
v 2.961363 1.482165 -1.074571
v 2.766757 2.270639 0.301789
v 1.552480 2.170059 -0.160201
v 1.671274 2.376595 -1.074571
v 2.766757 2.355697 -1.399491
v 3.219022 2.146745 -0.548851
v 2.490373 2.481941 -0.548851
vn -0.6730 -0.0208 -0.7394
vn 0.9492 -0.0073 -0.3145
vn 0.8968 -0.0154 0.4422
vn -0.2362 -0.0092 0.9717
vn -0.9856 -0.0080 -0.1690
vn 0.9785 -0.0006 0.2064
vn 0.9552 -0.0014 0.2960
vn 0.9987 -0.0147 0.0497
vn -0.9833 -0.0089 0.1819
vn -0.9875 0.0035 0.1578
vn -0.9454 0.0077 -0.3257
vn 0.1200 -0.9147 0.3860
vn 0.4459 -0.8861 -0.1262
vn -0.3793 -0.8954 0.2333
vn -0.3593 -0.8481 -0.3893
vn -0.0174 -0.8419 -0.5393
vn 0.9505 -0.1557 -0.2690
vn 0.2907 -0.2038 0.9349
vn -0.7717 -0.4234 0.4746
vn -0.6547 -0.3937 -0.6453
vn 0.0154 -0.3456 -0.9383
vn 0.8435 0.3635 0.3955
vn -0.3622 0.2540 0.8968
vn -0.9820 -0.1113 -0.1527
vn -0.2837 -0.1524 -0.9467
vn 0.8852 0.0244 -0.4646
vn 0.4162 0.9048 0.0895
vn -0.1896 0.9367 0.2943
vn -0.2407 0.9530 0.1840
vn -0.0273 0.9875 -0.1554
vn 0.4179 0.9085 0.0010
usemtl Material
s off
f 1//1 16//1 2//1 4//1 3//1
f 3//2 4//2 6//2 11//2 5//2
f 15//3 13//3 8//3 14//3
f 7//4 14//4 8//4 10//4 17//4 9//4
f 20//5 17//5 10//5 19//5
f 12//6 15//6 14//6 7//6
f 5//7 11//7 15//7 12//7
f 11//8 6//8 13//8 15//8
f 16//9 20//9 19//9 2//9
f 1//10 18//10 20//10 16//10
f 18//11 9//11 17//11 20//11
usemtl Material.001
f 21//12 22//12 23//12
f 22//13 21//13 26//13
f 21//14 23//14 24//14
f 21//15 24//15 25//15
f 21//16 25//16 26//16
f 22//17 26//17 31//17
f 23//18 22//18 27//18
f 24//19 23//19 28//19
f 25//20 24//20 29//20
f 26//21 25//21 30//21
f 22//22 31//22 27//22
f 23//23 27//23 28//23
f 24//24 28//24 29//24
f 25//25 29//25 30//25
f 26//26 30//26 31//26
f 27//27 31//27 32//27
f 28//28 27//28 32//28
f 29//29 28//29 32//29
f 30//30 29//30 32//30
f 31//31 30//31 32//31
